<?xml version="1.0" encoding="iso-8859-1"?>
<!-- Generator: Adobe Illustrator 19.0.0, SVG Export Plug-In . SVG Version: 6.00 Build 0)  -->
<svg xmlns="http://www.w3.org/2000/svg" xmlns:xlink="http://www.w3.org/1999/xlink" version="1.1" id="Capa_1" x="0px" y="0px" viewBox="0 0 512 512" style="enable-background:new 0 0 512 512;" xml:space="preserve" width="512px" height="512px">
<g>
	<g>
		<g>
			<path d="M148.688,59.312L185.376,96H80c-44.161,0.053-79.947,35.839-80,80v160c0.053,44.161,35.839,79.947,80,80h16.992v-32H80     c-26.51,0-48-21.49-48-48V176c0-26.51,21.49-48,48-48h105.376l-36.688,36.688l22.624,22.624L246.624,112l-75.312-75.312     L148.688,59.312z" fill="#FFFFFF"/>
			<path d="M432,96h-16v32h16c26.51,0,48,21.49,48,48v160c0,26.51-21.49,48-48,48H326.624l36.688-36.688l-22.624-22.624L265.376,400     l75.312,75.312l22.624-22.624L326.624,416H432c44.161-0.053,79.947-35.839,80-80V176C511.947,131.839,476.161,96.053,432,96z" fill="#FFFFFF"/>
			<rect x="352" y="96" width="32" height="32" fill="#FFFFFF"/>
			<rect x="288" y="96" width="32" height="32" fill="#FFFFFF"/>
			<rect x="192" y="384" width="32" height="32" fill="#FFFFFF"/>
			<rect x="128" y="384" width="32" height="32" fill="#FFFFFF"/>
		</g>
	</g>
</g>
<g>
</g>
<g>
</g>
<g>
</g>
<g>
</g>
<g>
</g>
<g>
</g>
<g>
</g>
<g>
</g>
<g>
</g>
<g>
</g>
<g>
</g>
<g>
</g>
<g>
</g>
<g>
</g>
<g>
</g>
</svg>
