<?xml version="1.0" encoding="iso-8859-1"?>
<!-- Generator: Adobe Illustrator 19.0.0, SVG Export Plug-In . SVG Version: 6.00 Build 0)  -->
<svg xmlns="http://www.w3.org/2000/svg" xmlns:xlink="http://www.w3.org/1999/xlink" version="1.1" id="Capa_1" x="0px" y="0px" viewBox="0 0 512 512" style="enable-background:new 0 0 512 512;" xml:space="preserve" width="512px" height="512px">
<g>
	<g>
		<path d="M506,364l-120-90c-4.544-3.408-10.626-3.957-15.708-1.417C365.21,275.125,362,280.318,362,286v45h-53.5l-49.484-65.977    L311.932,181H362v45c0,5.682,3.21,10.875,8.292,13.417c5.082,2.54,11.163,1.992,15.708-1.417l120-90c3.777-2.833,6-7.279,6-12    s-2.223-9.167-6-12L386,34c-4.544-3.408-10.626-3.957-15.708-1.417C365.21,35.125,362,40.318,362,46v45h-76    c-16.182,0-31.125,8.704-39.11,22.745l-46.252,73.442l-58.633-78.175C133.568,97.733,120.108,91,106,91H15    c-8.284,0-15,6.716-15,15v60c0,8.284,6.716,15,15,15h68.5l65.791,87.72L110.068,331H15c-8.284,0-15,6.716-15,15v60    c0,8.284,6.716,15,15,15h121c16.182,0,31.125-8.704,39.11-22.745l32.559-51.7l42.326,56.432C258.432,414.267,271.892,421,286,421    h76v45c0,5.682,3.21,10.875,8.292,13.417c5.08,2.54,11.161,1.994,15.708-1.417l120-90c3.777-2.833,6-7.279,6-12    S509.777,366.833,506,364z M103,157c-2.833-3.777-7.278-6-12-6H30v-30h76c4.701,0,9.181,2.236,11.994,5.997l65.528,87.368    l-17.115,27.176L103,157z M149.107,383.293C146.467,388.047,141.444,391,136,391H30v-30h88.349c5.153,0,9.946-2.646,12.692-7.007    l141.431-224.575c0.147-0.233,0.287-0.47,0.421-0.71c2.64-4.755,7.663-7.708,13.107-7.708h91c8.284,0,15-6.716,15-15V76l80,60    l-80,60v-30c0-8.284-6.716-15-15-15h-73.349c-5.153,0-9.946,2.646-12.692,7.007C290.621,158.544,149.416,382.738,149.107,383.293z     M392,436v-30c0-8.284-6.716-15-15-15h-91c-4.701,0-9.181-2.236-11.994-5.997l-49.22-65.625l17.114-27.175L289,355    c2.833,3.777,7.278,6,12,6h76c8.284,0,15-6.716,15-15v-30l80,60L392,436z" fill="#FFFFFF"/>
	</g>
</g>
<g>
</g>
<g>
</g>
<g>
</g>
<g>
</g>
<g>
</g>
<g>
</g>
<g>
</g>
<g>
</g>
<g>
</g>
<g>
</g>
<g>
</g>
<g>
</g>
<g>
</g>
<g>
</g>
<g>
</g>
</svg>
