<?xml version="1.0" encoding="iso-8859-1"?>
<!-- Generator: Adobe Illustrator 19.1.0, SVG Export Plug-In . SVG Version: 6.00 Build 0)  -->
<svg xmlns="http://www.w3.org/2000/svg" xmlns:xlink="http://www.w3.org/1999/xlink" version="1.1" id="Capa_1" x="0px" y="0px" viewBox="0 0 513.32 513.32" style="enable-background:new 0 0 513.32 513.32;" xml:space="preserve" width="512px" height="512px">
<g>
	<g>
		<g>
			<path d="M455.572,55.61L27.805,483.376l29.944,29.944l117.636-117.636l85.553,117.636h74.859V235.272L485.515,85.553     L455.572,55.61L455.572,55.61z M282.327,470.543l-76.998-106.942l85.553-85.553v192.495L282.327,470.543L282.327,470.543z" fill="#FFFFFF"/>
			<polygon points="121.914,192.495 175.385,192.495 282.327,42.777 293.021,42.777 293.021,149.718 335.797,106.942 335.797,0      260.938,0 153.997,149.718 79.137,149.718 79.137,363.602 121.914,320.825    " fill="#FFFFFF"/>
		</g>
	</g>
</g>
<g>
</g>
<g>
</g>
<g>
</g>
<g>
</g>
<g>
</g>
<g>
</g>
<g>
</g>
<g>
</g>
<g>
</g>
<g>
</g>
<g>
</g>
<g>
</g>
<g>
</g>
<g>
</g>
<g>
</g>
</svg>
