<?xml version="1.0" encoding="UTF-8"?>
<svg width="559px" height="168px" viewBox="0 0 559 168" version="1.1" xmlns="http://www.w3.org/2000/svg" xmlns:xlink="http://www.w3.org/1999/xlink">
    <!-- Generator: Sketch 51.2 (57519) - http://www.bohemiancoding.com/sketch -->
    <title>Spotify_Logo_RGB_Green</title>
    <desc>Created with Sketch.</desc>
    <defs></defs>
    <g id="Page-1" stroke="none" stroke-width="1" fill="none" fill-rule="evenodd">
        <g id="Spotify_Logo_RGB_Green" fill="#1ED760">
            <path d="M133.532,74.477 C106.538,58.446 62.012,56.972 36.243,64.793 C32.105,66.048 27.729,63.712 26.475,59.574 C25.221,55.434 27.555,51.061 31.696,49.803 C61.277,40.824 110.451,42.558 141.527,61.005 C145.25,63.215 146.471,68.022 144.264,71.738 C142.056,75.46 137.245,76.687 133.532,74.477 Z M132.648,98.221 C130.755,101.294 126.737,102.257 123.668,100.371 C101.163,86.537 66.846,82.53 40.221,90.612 C36.768,91.655 33.121,89.708 32.073,86.262 C31.032,82.809 32.98,79.169 36.426,78.119 C66.842,68.89 104.652,73.36 130.5,89.245 C133.569,91.135 134.535,95.155 132.648,98.221 Z M122.401,121.024 C120.897,123.491 117.683,124.265 115.225,122.761 C95.559,110.742 70.807,108.027 41.657,114.686 C38.848,115.33 36.049,113.569 35.408,110.761 C34.764,107.952 36.518,105.153 39.333,104.512 C71.233,97.219 98.597,100.358 120.67,113.846 C123.131,115.349 123.906,118.564 122.401,121.024 Z M83.996,0.237 C37.746,0.237 0.252,37.729 0.252,83.979 C0.252,130.232 37.746,167.723 83.996,167.723 C130.247,167.723 167.739,130.232 167.739,83.979 C167.739,37.729 130.247,0.237 83.996,0.237 Z" id="Fill-1"></path>
            <path d="M228.089,77.546 C213.63,74.098 211.055,71.678 211.055,66.594 C211.055,61.789 215.579,58.557 222.305,58.557 C228.825,58.557 235.289,61.012 242.068,66.066 C242.273,66.219 242.53,66.28 242.783,66.24 C243.036,66.202 243.259,66.064 243.408,65.854 L250.468,55.902 C250.758,55.492 250.679,54.928 250.288,54.614 C242.221,48.141 233.137,44.994 222.519,44.994 C206.907,44.994 196.002,54.363 196.002,67.768 C196.002,82.143 205.409,87.233 221.665,91.162 C235.501,94.349 237.836,97.018 237.836,101.792 C237.836,107.081 233.114,110.369 225.515,110.369 C217.076,110.369 210.191,107.526 202.49,100.857 C202.299,100.693 202.037,100.617 201.795,100.631 C201.541,100.652 201.308,100.77 201.146,100.965 L193.23,110.386 C192.898,110.777 192.94,111.361 193.323,111.699 C202.284,119.698 213.303,123.924 225.195,123.924 C242.018,123.924 252.889,114.731 252.889,100.504 C252.889,88.48 245.705,81.83 228.089,77.546" id="Fill-2"></path>
            <path d="M303.162,93.661 C303.162,103.814 296.908,110.899 287.953,110.899 C279.1,110.899 272.422,103.492 272.422,93.661 C272.422,83.831 279.1,76.423 287.953,76.423 C296.764,76.423 303.162,83.671 303.162,93.661 Z M290.95,63.286 C283.658,63.286 277.677,66.158 272.745,72.043 L272.745,65.419 C272.745,64.896 272.321,64.47 271.798,64.47 L258.852,64.47 C258.329,64.47 257.906,64.896 257.906,65.419 L257.906,139.021 C257.906,139.544 258.329,139.97 258.852,139.97 L271.798,139.97 C272.321,139.97 272.745,139.544 272.745,139.021 L272.745,115.789 C277.678,121.325 283.66,124.029 290.95,124.029 C304.499,124.029 318.215,113.599 318.215,93.661 C318.215,73.719 304.499,63.286 290.95,63.286 Z" id="Fill-3"></path>
            <path d="M353.373,111.005 C344.092,111.005 337.095,103.548 337.095,93.661 C337.095,83.733 343.85,76.527 353.159,76.527 C362.5,76.527 369.544,83.984 369.544,93.878 C369.544,103.805 362.743,111.005 353.373,111.005 Z M353.373,63.286 C335.924,63.286 322.254,76.722 322.254,93.878 C322.254,110.847 335.83,124.142 353.159,124.142 C370.67,124.142 384.382,110.751 384.382,93.661 C384.382,76.628 370.764,63.286 353.373,63.286 Z" id="Fill-4"></path>
            <path d="M421.644,64.47 L407.397,64.47 L407.397,49.904 C407.397,49.381 406.975,48.956 406.452,48.956 L393.507,48.956 C392.983,48.956 392.557,49.381 392.557,49.904 L392.557,64.47 L386.332,64.47 C385.81,64.47 385.389,64.896 385.389,65.419 L385.389,76.546 C385.389,77.068 385.81,77.494 386.332,77.494 L392.557,77.494 L392.557,106.286 C392.557,117.921 398.348,123.82 409.769,123.82 C414.413,123.82 418.266,122.861 421.897,120.802 C422.192,120.637 422.376,120.319 422.376,119.981 L422.376,109.385 C422.376,109.058 422.205,108.75 421.926,108.578 C421.644,108.401 421.293,108.392 421.004,108.535 C418.51,109.79 416.099,110.369 413.404,110.369 C409.251,110.369 407.397,108.484 407.397,104.257 L407.397,77.494 L421.644,77.494 C422.167,77.494 422.588,77.068 422.588,76.546 L422.588,65.419 C422.588,64.896 422.167,64.47 421.644,64.47" id="Fill-5"></path>
            <path d="M471.281,64.527 L471.281,62.738 C471.281,57.475 473.299,55.128 477.825,55.128 C480.524,55.128 482.692,55.664 485.12,56.474 C485.419,56.568 485.731,56.521 485.974,56.342 C486.224,56.163 486.365,55.876 486.365,55.572 L486.365,44.662 C486.365,44.246 486.097,43.876 485.696,43.753 C483.131,42.991 479.849,42.207 474.935,42.207 C462.976,42.207 456.656,48.941 456.656,61.674 L456.656,64.414 L450.436,64.414 C449.914,64.414 449.486,64.84 449.486,65.362 L449.486,76.546 C449.486,77.068 449.914,77.494 450.436,77.494 L456.656,77.494 L456.656,121.904 C456.656,122.427 457.078,122.852 457.6,122.852 L470.546,122.852 C471.069,122.852 471.495,122.427 471.495,121.904 L471.495,77.494 L483.583,77.494 L502.1,121.892 C499.998,126.557 497.931,127.485 495.109,127.485 C492.828,127.485 490.426,126.804 487.97,125.46 C487.739,125.333 487.466,125.312 487.216,125.389 C486.969,125.477 486.761,125.66 486.656,125.901 L482.268,135.528 C482.059,135.983 482.237,136.517 482.675,136.753 C487.256,139.234 491.392,140.293 496.502,140.293 C506.062,140.293 511.346,135.839 516.005,123.859 L538.466,65.819 C538.578,65.527 538.545,65.198 538.366,64.938 C538.188,64.682 537.901,64.527 537.587,64.527 L524.109,64.527 C523.706,64.527 523.344,64.783 523.212,65.163 L509.405,104.6 L494.282,65.137 C494.144,64.769 493.791,64.527 493.398,64.527 L471.281,64.527" id="Fill-6"></path>
            <path d="M442.505,64.47 L429.558,64.47 C429.035,64.47 428.61,64.896 428.61,65.419 L428.61,121.904 C428.61,122.427 429.035,122.852 429.558,122.852 L442.505,122.852 C443.027,122.852 443.453,122.427 443.453,121.904 L443.453,65.419 C443.453,64.896 443.027,64.47 442.505,64.47" id="Fill-7"></path>
            <path d="M436.097,38.751 C430.969,38.751 426.806,42.904 426.806,48.033 C426.806,53.164 430.969,57.321 436.097,57.321 C441.224,57.321 445.382,53.164 445.382,48.033 C445.382,42.904 441.224,38.751 436.097,38.751" id="Fill-8"></path>
            <path d="M550.049,70.089 L547.677,70.089 L547.677,73.114 L550.049,73.114 C551.233,73.114 551.94,72.535 551.94,71.6 C551.94,70.616 551.233,70.089 550.049,70.089 Z M551.587,74.404 L554.164,78.012 L551.991,78.012 L549.671,74.703 L547.677,74.703 L547.677,78.012 L545.858,78.012 L545.858,68.449 L550.123,68.449 C552.344,68.449 553.806,69.585 553.806,71.499 C553.806,73.067 552.9,74.025 551.587,74.404 Z M549.567,65.266 C544.9,65.266 541.368,68.976 541.368,73.519 C541.368,78.059 544.875,81.72 549.519,81.72 C554.185,81.72 557.72,78.012 557.72,73.467 C557.72,68.926 554.211,65.266 549.567,65.266 Z M549.519,82.631 C544.395,82.631 540.408,78.516 540.408,73.519 C540.408,68.521 544.447,64.36 549.567,64.36 C554.69,64.36 558.678,68.474 558.678,73.467 C558.678,78.464 554.642,82.631 549.519,82.631 Z" id="Fill-9"></path>
        </g>
    </g>
</svg>