<?xml version="1.0" encoding="iso-8859-1"?>
<!-- Generator: Adobe Illustrator 19.1.0, SVG Export Plug-In . SVG Version: 6.00 Build 0)  -->
<svg xmlns="http://www.w3.org/2000/svg" xmlns:xlink="http://www.w3.org/1999/xlink" version="1.1" id="Capa_1" x="0px" y="0px" viewBox="0 0 27.507 27.507" style="enable-background:new 0 0 27.507 27.507;" xml:space="preserve" width="512px" height="512px">
<g>
	<g>
		<polygon points="25.994,0 13.748,12.339 1.408,0.092 0.001,1.512 12.34,13.758 0.092,26.098 1.512,27.507 13.759,15.168     26.098,27.415 27.507,25.995 15.168,13.749 27.415,1.409   " fill="#12ffb9"/>
	</g>
</g>
<g>
</g>
<g>
</g>
<g>
</g>
<g>
</g>
<g>
</g>
<g>
</g>
<g>
</g>
<g>
</g>
<g>
</g>
<g>
</g>
<g>
</g>
<g>
</g>
<g>
</g>
<g>
</g>
<g>
</g>
</svg>
